%YAML 1.1
%TAG !u! tag:unity3d.com,2011:
--- !u!114 &11400000
MonoBehaviour:
  m_ObjectHideFlags: 0
  m_CorrespondingSourceObject: {fileID: 0}
  m_PrefabInstance: {fileID: 0}
  m_PrefabAsset: {fileID: 0}
  m_GameObject: {fileID: 0}
  m_Enabled: 1
  m_EditorHideFlags: 0
  m_Script: {fileID: 11500000, guid: 95e66c6366d904e98bc83428217d4fd7, type: 3}
  m_Name: EditableText(graph)
  m_EditorClassIdentifier: 
  _data:
    _json: '{"graph":{"variables":{"Kind":"Flow","collection":{"$content":[{"name":"Mensaje","value":{"$content":"This
      text is editable","$type":"System.String"},"typeHandle":{"Identification":"System.String,
      mscorlib, Version=4.0.0.0, Culture=neutral, PublicKeyToken=b77a5c561934e089","$version":"A"},"$version":"A"}],"$version":"A"},"$version":"A"},"controlInputDefinitions":[],"controlOutputDefinitions":[],"valueInputDefinitions":[],"valueOutputDefinitions":[],"title":"EditableText","summary":"Editable
      message\n","pan":{"x":-191.3354,"y":-42.75},"zoom":1.0,"elements":[{"specifyFallback":false,"kind":"Graph","defaultValues":{"name":{"$content":"Mensaje","$type":"System.String"}},"position":{"x":-441.0,"y":46.0},"guid":"5822b8c0-42dc-4d00-a201-7215f8880e3b","$version":"A","$type":"Unity.VisualScripting.GetVariable","$id":"10"},{"chainable":false,"parameterNames":["message"],"member":{"name":"print","parameterTypes":["System.Object"],"targetType":"UnityEngine.MonoBehaviour","targetTypeName":"UnityEngine.MonoBehaviour","$version":"A"},"defaultValues":{},"position":{"x":-172.0,"y":-124.0},"guid":"ffa1d83e-4061-4beb-95b6-8e6cdbc21ca3","$version":"A","$type":"Unity.VisualScripting.InvokeMember","$id":"12"},{"coroutine":false,"defaultValues":{},"position":{"x":-436.0,"y":-283.0},"guid":"1b40cb21-8d2b-495f-aef4-33b7ebff7d97","$version":"A","$type":"Unity.VisualScripting.Update","$id":"16"},{"sourceUnit":{"$ref":"16"},"sourceKey":"trigger","destinationUnit":{"$ref":"12"},"destinationKey":"enter","guid":"7b8d3cf7-8854-4c7c-92f4-81234172ef0a","$type":"Unity.VisualScripting.ControlConnection"},{"sourceUnit":{"$ref":"10"},"sourceKey":"value","destinationUnit":{"$ref":"12"},"destinationKey":"%message","guid":"ae0e8c86-860c-4478-9a91-26c3e4a1d436","$type":"Unity.VisualScripting.ValueConnection"}],"$version":"A"}}'
    _objectReferences: []
