%YAML 1.1
%TAG !u! tag:unity3d.com,2011:
--- !u!114 &11400000
MonoBehaviour:
  m_ObjectHideFlags: 0
  m_CorrespondingSourceObject: {fileID: 0}
  m_PrefabInstance: {fileID: 0}
  m_PrefabAsset: {fileID: 0}
  m_GameObject: {fileID: 0}
  m_Enabled: 1
  m_EditorHideFlags: 0
  m_Script: {fileID: 11500000, guid: 95e66c6366d904e98bc83428217d4fd7, type: 3}
  m_Name: HelloWorld(graph)
  m_EditorClassIdentifier: 
  _data:
    _json: '{"graph":{"variables":{"Kind":"Flow","collection":{"$content":[],"$version":"A"},"$version":"A"},"controlInputDefinitions":[],"controlOutputDefinitions":[],"valueInputDefinitions":[],"valueOutputDefinitions":[],"title":"Hello
      World","summary":"Will print hello world in console on startup","pan":{"x":-9.0,"y":114.0},"zoom":1.0,"elements":[{"coroutine":false,"defaultValues":{},"position":{"x":-349.0,"y":8.0},"guid":"eaf1f3cb-218d-4a85-8989-f8cb3a68bae0","$version":"A","$type":"Unity.VisualScripting.Start","$id":"9"},{"chainable":false,"parameterNames":["message"],"member":{"name":"print","parameterTypes":["System.Object"],"targetType":"UnityEngine.MonoBehaviour","targetTypeName":"UnityEngine.MonoBehaviour","$version":"A"},"defaultValues":{},"position":{"x":-91.0,"y":4.0},"guid":"80a75cec-e46b-4633-af03-54a92716c285","$version":"A","$type":"Unity.VisualScripting.InvokeMember","$id":"11"},{"type":"System.String","value":{"$content":"Hello
      World!","$type":"System.String"},"defaultValues":{},"position":{"x":-350.0,"y":149.0},"guid":"1678d570-ab04-428e-969d-75be426181ea","$version":"A","$type":"Unity.VisualScripting.Literal","$id":"15"},{"sourceUnit":{"$ref":"9"},"sourceKey":"trigger","destinationUnit":{"$ref":"11"},"destinationKey":"enter","guid":"eb4d5175-7170-4e46-a2cb-6cbccf0b5075","$type":"Unity.VisualScripting.ControlConnection"},{"sourceUnit":{"$ref":"15"},"sourceKey":"output","destinationUnit":{"$ref":"11"},"destinationKey":"%message","guid":"57595ae7-7ac6-4af4-b59b-5c61e01daa7e","$type":"Unity.VisualScripting.ValueConnection"}],"$version":"A"}}'
    _objectReferences: []
